{
    "name": "Log",
    "alias": "log",
    "description": "",
    "keywords": [],
    "active": 1,
    "order": 1,
    "providers": [
        "Modules\\Log\\Providers\\LogServiceProvider",
        "Modules\\Log\\Providers\\RouteServiceProvider"
    ],
    "aliases": {},
    "files": [
        
    ],
    "requires": []
}
